Workshop 6: Demographic matrix models – BSC6926fall2025
…
# place to store data
pop = tibble(time = 0:years,
             Nt = NA, 
             juvs = NA,
             adults = NA)

pop$Nt[pop$time == 0] = sum(p)
pop$juvs[pop$time == 0] = p[1]
pop$adults[pop$time == 0] = p[2]

pop
## # A tibble: 51 × 4
##     time    Nt  juvs adults
##    <int> <dbl> <dbl>  <dbl>
##  1     0   150    50    100
##  2     1    NA    NA     NA
##  3     2    NA    NA     NA
##  4     3    NA    NA     NA
##  5     4    NA    NA     NA
##  6     5    NA    NA     NA
##  7     6    NA    NA     NA
##  8     7    NA    NA     NA
##  9     8    NA    NA     NA
## 10     9    NA    NA     NA
## # ℹ 41 more rows
…
# starting population size
n = c(4264, 3, 30, 16, 25, 5)
names(n) = c("seed", "seedlings", "tiny", "small", "medium","large")

# projection with equal probabilities 
x.eq = stoch.projection(matrices = hudsonia, n0 = n, nreps = 100) %>% 
  as_tibble() %>% 
  mutate(rep = row_number(),
         total = seed + seedlings + tiny + small + medium + large,
         type = 'equal')

x.eq
## # A tibble: 100 × 9
##     seed seedlings  tiny small medium large   rep total type 
##    <dbl>     <dbl> <dbl> <dbl>  <dbl> <dbl> <int> <dbl> <chr>
##  1 1202.     0.985  3.64 3.93    4.20  8.87     1 1223. equal
##  2  611.     0.374  2.96 2.78    3.20  2.32     2  623. equal
##  3 1189.     0.973  3.76 4.06    4.00  7.93     3 1210. equal
##  4  680.     0.406  2.70 1.56    3.98  5.39     4  694. equal
##  5  917.     0.547  2.51 1.25    3.94  8.06     5  933. equal
##  6  726.     0.444  3.51 3.30    3.72  2.90     6  740. equal
##  7  921.     0.759  3.92 4.05    5.41  4.53     7  940. equal
##  8  710.     0.424  1.13 0.570   1.48  6.09     8  720. equal
##  9  296.     0.181  1.90 1.63    1.61  1.06     9  302. equal
## 10  526.     0.314  2.35 1.68    3.51  3.31    10  537. equal
## # ℹ 90 more rows

# unequal probabilities for projection matrices
x.uneq = stoch.projection(matrices = hudsonia, n0 = n, nreps = 100, prob = c(0.2, 0.2, 0.2, 0.4))%>% 
  as_tibble() %>% 
  mutate(rep = row_number(),
         total = seed + seedlings + tiny + small + medium + large,
         type = 'unequal')

x.uneq
## # A tibble: 100 × 9
##     seed seedlings  tiny small medium large   rep total type   
##    <dbl>     <dbl> <dbl> <dbl>  <dbl> <dbl> <int> <dbl> <chr>  
##  1 2926.     2.41   4.73  8.05  10.7  15.8      1 2968. unequal
##  2 1358.     0.811  3.73  1.88   5.93 11.6      2 1382. unequal
##  3 1096.     0.902  2.62  2.46   1.84 10.2      3 1114. unequal
##  4  919.     0.753  3.62  4.02   5.48  3.54     4  936. unequal
##  5 2944.     2.42  14.8  15.9   18.0  13.1      5 3008. unequal
##  6 1290.     1.06   5.46  5.80   5.40  9.00     6 1317. unequal
##  7 1223.     1.01   3.41  4.67   5.37  6.46     7 1244. unequal
##  8  931.     0.557  4.30  2.79   5.52  5.78     8  950. unequal
##  9  581.     0.476  2.07  2.38   3.31  2.13     9  592. unequal
## 10  887.     0.530  4.02  2.30   5.37  6.82    10  906. unequal
## # ℹ 90 more rows
…
